RPBE01
Pokemon Battle Revolution

Menu X Modifier [Mathew_Wi]
0462A7A0 XXXXXXXX
Replace X with the X position converted to float.

Menu Y Modifier [Mathew_Wi]
0462A7A4 XXXXXXXX
Replace Y with the Y position converted to float.

Small Button Font [Mathew_Wi]
0462A7AC 43700000

Large Button Font [Mathew_Wi]
0462A7AC 42700000

Goto Store Press 1+2 Max Poke Coupons (999,999) [Skiller]
2851DD12 FCFF0300
C2167624 00000004
2C000008 40820010
60000000 3CC0000F
60C6423F 90C40000
7CA5002E 00000000
E0000000 80008000
2A51DD12 FCFF0300
04167624 7CA5002E
E0000000 80008000